{
	"main_script": "mapbox.js",
	"icon": "mapbox.png",
	"width": 15294,
	"height": 4671,
	"resize": "free",
	"animation": true,
	"dependencies": [
		"https://api.tiles.mapbox.com/mapbox-gl-js/v0.48.0/mapbox-gl.js",
		"nami.js",
		"https://api.tiles.mapbox.com/mapbox-gl-js/v0.48.0/mapbox-gl.css",
		"stylesheet.css"
	],
	"load": {
		"value": 4,
		"camera": {
			"zoom": 1,
			"longitude": 0,
			"latitude": 0
		}
	},
	"title": "mapbox",
	"version": "1.0.0",
	"description": "SAGE2 application mapbox",
	"keywords": [ "sage2", "mapbox" ],
	"author": "Adhitya Kamakshidasan <adhitya.kamakshidasan@inria.fr>",
	"license": "SAGE2-Software-License"
}
