{
	"main_script": "tsunamilab.js",
	"icon": "/images/img.png",
	"width": 800,
	"height": 600,
	"resize": "free",
	"animation": false,
	"dependencies": [
		"node_modules/cesium-tsunamilab/Build/Cesium/Cesium.js",
		"css/tsunamilab.css",
		"node_modules/cesium-tsunamilab/Build/Cesium/Widgets/widgets.css"],
	"load": {
		"value": 4
	},
	"title": "tsunamilab",
	"version": "1.0.0",
	"description": "SAGE2 application tsunamiwall",
	"keywords": [ "sage2", "tsunamilab" ],
	"author": "Adhitya Kamakshidasan <adhitya.kamakshidasan@inria.fr>",
	"license": "SAGE2-Software-License"
}
