{
	"main_script": "testlayout.js",
	"icon": "testlayout.png",
	"width": 6159,
	"height": 2877,
	"resize": "free",
	"animation": true,
	"dependencies": [
		"https://api.tiles.mapbox.com/mapbox-gl-js/v0.51.0/mapbox-gl.js",
		"https://api.tiles.mapbox.com/mapbox-gl-js/v0.51.0/mapbox-gl.css",
		"nami.js",
		"stylesheet.css"
	],
	"load": {
		"value": 4,
		"camera": {
			"zoom": 0,
			"longitude": 0,
			"latitude": 0
		}
	},
	"title": "testlayout",
	"version": "1.0.0",
	"description": "SAGE2 application testlayout",
	"keywords": [ "sage2", "testlayout" ],
	"author": "Aishwarya Iyer <>",
	"license": "SAGE2-Software-License"
}
